1226.206831, -322.074315, 0
1573.086573, 251.005843, 0
784.570779, 105.551473, 0
1105.007849, 392.632466, 0
2186.346256, 259.754978, 0
1909.654861, 83.405225, 0
2127.836415, -340.927823, 0
2294.616802, -867.060703, 0
1448.821515, -852.478812, 0
1216.149205, -613.244651, 0
1507.741471, -419.670039, 0
716.764983, -271.754975, 0
